{
    "ttbar": {
        "samples": ["ttbar"],
        "label": "t#bar{t}",
        "colour": "ROOT.kGreen",
        "sampletype": "SampleTypes.Reducible"
    },
    "stop": {
        "samples": ["stops", "stopt", "stopWt", "singletop"],
        "label": "Single top",
        "colour": "ROOT.kGreen - 9",
        "sampletype": "SampleTypes.Reducible"
    },
    "diboson": {
        "samples": ["WW", "WZ", "ZZ", "diboson"],
        "label": "Diboson",
        "colour": "ROOT.kOrange + 7",
        "sampletype": "SampleTypes.Reducible"
    },
    "vhbb": {
        "samples": ["VHbb"],
        "label": "VH(bb)",
        "colour": "ROOT.kViolet - 4",
        "sampletype": "SampleTypes.Irreducible"
    },
    "wjets": {
        "samples": ["Wenu", "Wenu_l", "Wenu_cl", "Wenu_hf", "Wenu_hpt", "Wmunu", "Wmunu_l", "Wmunu_cl", "Wmunu_hf", "Wmunu_hpt", "Wtaunu", "Wtaunu_l", "Wtaunu_cl", "Wtaunu_hf", "Wtaunu_hpt", "wjets"],
        "label": "W+jets",
        "colour": "ROOT.kCyan",
        "sampletype": "SampleTypes.Reducible"
    },
    "zjets": {
        "samples": ["Zee", "Zee_l", "Zee_cl", "Zee_hf", "Zee_hpt", "Zmumu", "Zmumu_l", "Zmumu_cl", "Zmumu_hf", "Zmumu_hpt", "Ztautau", "Ztautau_l", "Ztautau_cl", "Ztautau_hf", "Ztautau_hpt", "Znunu", "Znunu_l", "Znunu_cl", "Znunu_hf", "Znunu_hpt", "zjets"],
        "label": "Z+jets",
        "colour": "ROOT.kYellow",
        "sampletype": "SampleTypes.Reducible"
    },
    "dijet": {
        "samples": ["dijet"],
        "label": "Dijet MC",
        "colour": "ROOT.kPink + 9",
        "sampletype": "SampleTypes.Reducible"
    }
}
