{
    "description": "Configuration file for creating MC sample lists for the mono-h(bb) dark matter search",
    "author": {
        "name": "Philipp Gadow",
        "email": "paul.philipp.gadow@cern.ch"
    },
    "samplelist": "XAMPPmonoH/data/samplelist.txt",
    "outputDir": "XAMPPmonoH/data/SampleLists",
    "rtags": {
        "mc16a": "r9364",
        "mc16d": "r10201",
        "mc16e": "r10724"
    },
    "campaign": "mc16_13TeV",
    "GRL": {
        "data15": "GoodRunsLists/data15_13TeV/20170619/data15_13TeV.periodAllYear_DetStatus-v89-pro21-02_Unknown_PHYS_StandardGRL_All_Good_25ns.xml",
        "data16": "GoodRunsLists/data16_13TeV/20180129/data16_13TeV.periodAllYear_DetStatus-v89-pro21-01_DQDefects-00-02-04_PHYS_StandardGRL_All_Good_25ns.xml",
        "data17": "GoodRunsLists/data17_13TeV/20180619/data17_13TeV.periodAllYear_DetStatus-v99-pro22-01_Unknown_PHYS_StandardGRL_All_Good_25ns_Triggerno17e33prim.xml",
        "data18": "GoodRunsLists/data18_13TeV/20190318/data18_13TeV.periodAllYear_DetStatus-v102-pro22-04_Unknown_PHYS_StandardGRL_All_Good_25ns_Triggerno17e33prim.xml"
    },
    "derivations": ["EXOT27"],
    "doFullSim": true,
    "doFastSim": false,
    "signals": ["zp2hdm", "zphxxbb", "shxxbb", "2HDMa"],
    "blacklist": []
}
