user.amatic.mc16_13TeV.304102.zp2hdmbbmzp600mA300.1200a1PFlow.EXOT27.e4429_s3126_r9364_p3949_XAMPP  
user.amatic.mc16_13TeV.304103.zp2hdmbbmzp600mA400.1200a1PFlow.EXOT27.e4429_s3126_r9364_p3949_XAMPP  
user.amatic.mc16_13TeV.304104.zp2hdmbbmzp800mA300.1200a1PFlow.EXOT27.e4429_s3126_r9364_p3949_XAMPP  
user.amatic.mc16_13TeV.304105.zp2hdmbbmzp800mA400.1200a1PFlow.EXOT27.e4429_s3126_r9364_p3949_XAMPP  
user.amatic.mc16_13TeV.304106.zp2hdmbbmzp800mA500.1200a1PFlow.EXOT27.e4429_s3126_r9364_p3949_XAMPP  
user.amatic.mc16_13TeV.304109.zp2hdmbbmzp1000mA400.1200a1PFlow.EXOT27.e4429_s3126_r9364_p3949_XAMPP 
user.amatic.mc16_13TeV.304111.zp2hdmbbmzp1000mA600.1200a1PFlow.EXOT27.e4429_s3126_r9364_p3949_XAMPP 
user.amatic.mc16_13TeV.304116.zp2hdmbbmzp1200mA500.1200a1PFlow.EXOT27.e4429_s3126_r9364_p3949_XAMPP 
user.amatic.mc16_13TeV.304117.zp2hdmbbmzp1200mA600.1200a1PFlow.EXOT27.e4429_s3126_r9364_p3949_XAMPP 
user.amatic.mc16_13TeV.304118.zp2hdmbbmzp1200mA700.1200a1PFlow.EXOT27.e4429_s3126_r9364_p3949_XAMPP 
user.amatic.mc16_13TeV.304122.zp2hdmbbmzp1400mA500.1200a1PFlow.EXOT27.e4429_s3126_r9364_p3949_XAMPP 
user.amatic.mc16_13TeV.304123.zp2hdmbbmzp1400mA600.1200a1PFlow.EXOT27.e4429_s3126_r9364_p3949_XAMPP 
user.amatic.mc16_13TeV.304125.zp2hdmbbmzp1400mA800.1200a1PFlow.EXOT27.e4429_s3126_r9364_p3949_XAMPP 
user.amatic.mc16_13TeV.305202.zp2hdmbbmzp1600mA300.1200a1PFlow.EXOT27.e4978_s3126_r9364_p3949_XAMPP 
user.amatic.mc16_13TeV.305204.zp2hdmbbmzp1600mA500.1200a1PFlow.EXOT27.e4978_s3126_r9364_p3949_XAMPP 
user.amatic.mc16_13TeV.305205.zp2hdmbbmzp1600mA600.1200a1PFlow.EXOT27.e4978_s3126_r9364_p3949_XAMPP 
user.amatic.mc16_13TeV.305206.zp2hdmbbmzp1600mA700.1200a1PFlow.EXOT27.e4978_s3126_r9364_p3949_XAMPP 
user.amatic.mc16_13TeV.305207.zp2hdmbbmzp1600mA800.1200a1PFlow.EXOT27.e4978_s3126_r9364_p3949_XAMPP 
user.amatic.mc16_13TeV.305210.zp2hdmbbmzp1800mA500.1200a1PFlow.EXOT27.e4978_s3126_r9364_p3949_XAMPP 
user.amatic.mc16_13TeV.305212.zp2hdmbbmzp1800mA700.1200a1PFlow.EXOT27.e4978_s3126_r9364_p3949_XAMPP 
user.amatic.mc16_13TeV.305213.zp2hdmbbmzp1800mA800.1200a1PFlow.EXOT27.e4978_s3126_r9364_p3949_XAMPP 
user.amatic.mc16_13TeV.305215.zp2hdmbbmzp2000mA400.1200a1PFlow.EXOT27.e4978_s3126_r9364_p3949_XAMPP 
user.amatic.mc16_13TeV.305216.zp2hdmbbmzp2000mA500.1200a1PFlow.EXOT27.e4978_s3126_r9364_p3949_XAMPP 
user.amatic.mc16_13TeV.305217.zp2hdmbbmzp2000mA600.1200a1PFlow.EXOT27.e4978_s3126_r9364_p3949_XAMPP 
user.amatic.mc16_13TeV.305218.zp2hdmbbmzp2000mA700.1200a1PFlow.EXOT27.e4978_s3126_r9364_p3949_XAMPP 
user.amatic.mc16_13TeV.305219.zp2hdmbbmzp2000mA800.1200a1PFlow.EXOT27.e4978_s3126_r9364_p3949_XAMPP 
user.amatic.mc16_13TeV.305220.zp2hdmbbmzp2200mA300.1200a1PFlow.EXOT27.e4978_s3126_r9364_p3949_XAMPP 
user.amatic.mc16_13TeV.305221.zp2hdmbbmzp2200mA400.1200a1PFlow.EXOT27.e4978_s3126_r9364_p3949_XAMPP 
user.amatic.mc16_13TeV.305222.zp2hdmbbmzp2200mA500.1200a1PFlow.EXOT27.e4978_s3126_r9364_p3949_XAMPP 
user.amatic.mc16_13TeV.305223.zp2hdmbbmzp2200mA600.1200a1PFlow.EXOT27.e4978_s3126_r9364_p3949_XAMPP 
user.amatic.mc16_13TeV.305224.zp2hdmbbmzp2200mA700.1200a1PFlow.EXOT27.e4978_s3126_r9364_p3949_XAMPP 
user.amatic.mc16_13TeV.305226.zp2hdmbbmzp2400mA300.1200a1PFlow.EXOT27.e4978_s3126_r9364_p3949_XAMPP 
user.amatic.mc16_13TeV.305227.zp2hdmbbmzp2400mA400.1200a1PFlow.EXOT27.e4978_s3126_r9364_p3949_XAMPP 
user.amatic.mc16_13TeV.305228.zp2hdmbbmzp2400mA500.1200a1PFlow.EXOT27.e4978_s3126_r9364_p3949_XAMPP 
user.amatic.mc16_13TeV.305229.zp2hdmbbmzp2400mA600.1200a1PFlow.EXOT27.e4978_s3126_r9364_p3949_XAMPP 
user.amatic.mc16_13TeV.305230.zp2hdmbbmzp2400mA700.1200a1PFlow.EXOT27.e4978_s3126_r9364_p3949_XAMPP 
user.amatic.mc16_13TeV.305827.zp2hdmbbmzp400mA400.1200a1PFlow.EXOT27.e5321_s3126_r9364_p3949_XAMPP  
user.amatic.mc16_13TeV.305837.zp2hdmbbmzp2600mA400.1200a1PFlow.EXOT27.e5321_s3126_r9364_p3949_XAMPP 
user.amatic.mc16_13TeV.305838.zp2hdmbbmzp2600mA500.1200a1PFlow.EXOT27.e5321_s3126_r9364_p3949_XAMPP 
user.amatic.mc16_13TeV.305839.zp2hdmbbmzp2600mA600.1200a1PFlow.EXOT27.e5321_s3126_r9364_p3949_XAMPP 
user.amatic.mc16_13TeV.305840.zp2hdmbbmzp2600mA700.1200a1PFlow.EXOT27.e5321_s3126_r9364_p3949_XAMPP 
user.amatic.mc16_13TeV.305843.zp2hdmbbmzp2800mA300.1200a1PFlow.EXOT27.e5321_s3126_r9364_p3949_XAMPP 
user.amatic.mc16_13TeV.305845.zp2hdmbbmzp2800mA500.1200a1PFlow.EXOT27.e5321_s3126_r9364_p3949_XAMPP 
user.amatic.mc16_13TeV.305846.zp2hdmbbmzp2800mA600.1200a1PFlow.EXOT27.e5321_s3126_r9364_p3949_XAMPP 
user.amatic.mc16_13TeV.305847.zp2hdmbbmzp3000mA200.1200a1PFlow.EXOT27.e5321_s3126_r9364_p3949_XAMPP 
user.amatic.mc16_13TeV.305848.zp2hdmbbmzp3000mA300.1200a1PFlow.EXOT27.e5321_s3126_r9364_p3949_XAMPP 
user.amatic.mc16_13TeV.305849.zp2hdmbbmzp3000mA400.1200a1PFlow.EXOT27.e5321_s3126_r9364_p3949_XAMPP 
user.amatic.mc16_13TeV.305850.zp2hdmbbmzp3000mA500.1200a1PFlow.EXOT27.e5321_s3126_r9364_p3949_XAMPP 
user.amatic.mc16_13TeV.305851.zp2hdmbbmzp3000mA600.1200a1PFlow.EXOT27.e5321_s3126_r9364_p3949_XAMPP 
user.amatic.mc16_13TeV.304102.zp2hdmbbmzp600mA300.1200e1PFlow.EXOT27.e4429_s3126_r10724_p3949_XAMPP              
user.amatic.mc16_13TeV.304103.zp2hdmbbmzp600mA400.1200e1PFlow.EXOT27.e4429_s3126_r10724_p3949_XAMPP              
user.amatic.mc16_13TeV.304104.zp2hdmbbmzp800mA300.1200e1PFlow.EXOT27.e4429_s3126_r10724_p3949_XAMPP              
user.amatic.mc16_13TeV.304106.zp2hdmbbmzp800mA500.1200e1PFlow.EXOT27.e4429_s3126_r10724_p3949_XAMPP              
user.amatic.mc16_13TeV.304109.zp2hdmbbmzp1000mA400.1200e1PFlow.EXOT27.e4429_s3126_r10724_p3949_XAMPP             
user.amatic.mc16_13TeV.304110.zp2hdmbbmzp1000mA500.1200e1PFlow.EXOT27.e4429_s3126_r10724_p3949_XAMPP             
user.amatic.mc16_13TeV.304111.zp2hdmbbmzp1000mA600.1200e1PFlow.EXOT27.e4429_s3126_r10724_p3949_XAMPP             
user.amatic.mc16_13TeV.304116.zp2hdmbbmzp1200mA500.1200e1PFlow.EXOT27.e4429_s3126_r10724_p3949_XAMPP             
user.amatic.mc16_13TeV.304117.zp2hdmbbmzp1200mA600.1200e1PFlow.EXOT27.e4429_s3126_r10724_p3949_XAMPP             
user.amatic.mc16_13TeV.304118.zp2hdmbbmzp1200mA700.1200e1PFlow.EXOT27.e4429_s3126_r10724_p3949_XAMPP             
user.amatic.mc16_13TeV.304122.zp2hdmbbmzp1400mA500.1200e1PFlow.EXOT27.e4429_s3126_r10724_p3949_XAMPP             
user.amatic.mc16_13TeV.304123.zp2hdmbbmzp1400mA600.1200e1PFlow.EXOT27.e4429_s3126_r10724_p3949_XAMPP             
user.amatic.mc16_13TeV.304124.zp2hdmbbmzp1400mA700.1200e1PFlow.EXOT27.e4429_s3126_r10724_p3949_XAMPP             
user.amatic.mc16_13TeV.304125.zp2hdmbbmzp1400mA800.1200e1PFlow.EXOT27.e4429_s3126_r10724_p3949_XAMPP             
user.amatic.mc16_13TeV.305202.zp2hdmbbmzp1600mA300.1200e1PFlow.EXOT27.e4978_s3126_r10724_p3949_XAMPP             
user.amatic.mc16_13TeV.305204.zp2hdmbbmzp1600mA500.1200e1PFlow.EXOT27.e4978_s3126_r10724_p3949_XAMPP             
user.amatic.mc16_13TeV.305205.zp2hdmbbmzp1600mA600.1200e1PFlow.EXOT27.e4978_s3126_r10724_p3949_XAMPP             
user.amatic.mc16_13TeV.305206.zp2hdmbbmzp1600mA700.1200e1PFlow.EXOT27.e4978_s3126_r10724_p3949_XAMPP             
user.amatic.mc16_13TeV.305207.zp2hdmbbmzp1600mA800.1200e1PFlow.EXOT27.e4978_s3126_r10724_p3949_XAMPP             
user.amatic.mc16_13TeV.305211.zp2hdmbbmzp1800mA600.1200e1PFlow.EXOT27.e4978_s3126_r10724_p3949_XAMPP             
user.amatic.mc16_13TeV.305212.zp2hdmbbmzp1800mA700.1200e1PFlow.EXOT27.e4978_s3126_r10724_p3949_XAMPP             
user.amatic.mc16_13TeV.305213.zp2hdmbbmzp1800mA800.1200e1PFlow.EXOT27.e4978_s3126_r10724_p3949_XAMPP             
user.amatic.mc16_13TeV.305215.zp2hdmbbmzp2000mA400.1200e1PFlow.EXOT27.e4978_s3126_r10724_p3949_XAMPP             
user.amatic.mc16_13TeV.305216.zp2hdmbbmzp2000mA500.1200e1PFlow.EXOT27.e4978_s3126_r10724_p3949_XAMPP             
user.amatic.mc16_13TeV.305217.zp2hdmbbmzp2000mA600.1200e1PFlow.EXOT27.e4978_s3126_r10724_p3949_XAMPP             
user.amatic.mc16_13TeV.305218.zp2hdmbbmzp2000mA700.1200e1PFlow.EXOT27.e4978_s3126_r10724_p3949_XAMPP             
user.amatic.mc16_13TeV.305219.zp2hdmbbmzp2000mA800.1200e1PFlow.EXOT27.e4978_s3126_r10724_p3949_XAMPP             
user.amatic.mc16_13TeV.305220.zp2hdmbbmzp2200mA300.1200e1PFlow.EXOT27.e4978_s3126_r10724_p3949_XAMPP             
user.amatic.mc16_13TeV.305221.zp2hdmbbmzp2200mA400.1200e1PFlow.EXOT27.e4978_s3126_r10724_p3949_XAMPP             
user.amatic.mc16_13TeV.305222.zp2hdmbbmzp2200mA500.1200e1PFlow.EXOT27.e4978_s3126_r10724_p3949_XAMPP             
user.amatic.mc16_13TeV.305223.zp2hdmbbmzp2200mA600.1200e1PFlow.EXOT27.e4978_s3126_r10724_p3949_XAMPP             
user.amatic.mc16_13TeV.305224.zp2hdmbbmzp2200mA700.1200e1PFlow.EXOT27.e4978_s3126_r10724_p3949_XAMPP             
user.amatic.mc16_13TeV.305228.zp2hdmbbmzp2400mA500.1200e1PFlow.EXOT27.e4978_s3126_r10724_p3949_XAMPP             
user.amatic.mc16_13TeV.305229.zp2hdmbbmzp2400mA600.1200e1PFlow.EXOT27.e4978_s3126_r10724_p3949_XAMPP             
user.amatic.mc16_13TeV.305230.zp2hdmbbmzp2400mA700.1200e1PFlow.EXOT27.e4978_s3126_r10724_p3949_XAMPP             
user.amatic.mc16_13TeV.305826.zp2hdmbbmzp400mA300.1200e1PFlow.EXOT27.e5321_s3126_r10724_p3949_XAMPP              
user.amatic.mc16_13TeV.305827.zp2hdmbbmzp400mA400.1200e1PFlow.EXOT27.e5321_s3126_r10724_p3949_XAMPP              
user.amatic.mc16_13TeV.305836.zp2hdmbbmzp2600mA300.1200e1PFlow.EXOT27.e5321_s3126_r10724_p3949_XAMPP             
user.amatic.mc16_13TeV.305837.zp2hdmbbmzp2600mA400.1200e1PFlow.EXOT27.e5321_s3126_r10724_p3949_XAMPP             
user.amatic.mc16_13TeV.305838.zp2hdmbbmzp2600mA500.1200e1PFlow.EXOT27.e5321_s3126_r10724_p3949_XAMPP             
user.amatic.mc16_13TeV.305839.zp2hdmbbmzp2600mA600.1200e1PFlow.EXOT27.e5321_s3126_r10724_p3949_XAMPP             
user.amatic.mc16_13TeV.305843.zp2hdmbbmzp2800mA300.1200e1PFlow.EXOT27.e5321_s3126_r10724_p3949_XAMPP             
user.amatic.mc16_13TeV.305844.zp2hdmbbmzp2800mA400.1200e1PFlow.EXOT27.e5321_s3126_r10724_p3949_XAMPP             
user.amatic.mc16_13TeV.305846.zp2hdmbbmzp2800mA600.1200e1PFlow.EXOT27.e5321_s3126_r10724_p3949_XAMPP             
user.amatic.mc16_13TeV.305847.zp2hdmbbmzp3000mA200.1200e1PFlow.EXOT27.e5321_s3126_r10724_p3949_XAMPP             
user.amatic.mc16_13TeV.305848.zp2hdmbbmzp3000mA300.1200e1PFlow.EXOT27.e5321_s3126_r10724_p3949_XAMPP             
user.amatic.mc16_13TeV.305849.zp2hdmbbmzp3000mA400.1200e1PFlow.EXOT27.e5321_s3126_r10724_p3949_XAMPP             
user.amatic.mc16_13TeV.305850.zp2hdmbbmzp3000mA500.1200e1PFlow.EXOT27.e5321_s3126_r10724_p3949_XAMPP             
user.amatic.mc16_13TeV.305851.zp2hdmbbmzp3000mA600.1200e1PFlow.EXOT27.e5321_s3126_r10724_p3949_XAMPP             
user.amatic.mc16_13TeV.311662.2HDMa_bb_tb10_sp035_mA300_ma150.1200e1PFlow.EXOT27.e7412_s3126_r10724_p3949_XAMPP  
user.amatic.mc16_13TeV.311663.2HDMa_bb_tb10_sp035_mA1000_ma150.1200e1PFlow.EXOT27.e7412_s3126_r10724_p3949_XAMPP 
user.amatic.mc16_13TeV.311664.2HDMa_bb_tb10_sp035_mA1400_ma150.1200e1PFlow.EXOT27.e7412_s3126_r10724_p3949_XAMPP 
user.amatic.mc16_13TeV.311665.2HDMa_bb_tb10_sp035_mA1800_ma150.1200e1PFlow.EXOT27.e7412_s3126_r10724_p3949_XAMPP 
user.amatic.mc16_13TeV.311666.2HDMa_bb_tb10_sp035_mA400_ma250.1200e1PFlow.EXOT27.e7412_s3126_r10724_p3949_XAMPP  
user.amatic.mc16_13TeV.311667.2HDMa_bb_tb10_sp035_mA1100_ma250.1200e1PFlow.EXOT27.e7412_s3126_r10724_p3949_XAMPP 
user.amatic.mc16_13TeV.311668.2HDMa_bb_tb10_sp035_mA1600_ma250.1200e1PFlow.EXOT27.e7412_s3126_r10724_p3949_XAMPP 
user.amatic.mc16_13TeV.311669.2HDMa_bb_tb10_sp035_mA600_ma350.1200e1PFlow.EXOT27.e7412_s3126_r10724_p3949_XAMPP  
user.amatic.mc16_13TeV.311670.2HDMa_bb_tb10_sp035_mA1200_ma350.1200e1PFlow.EXOT27.e7412_s3126_r10724_p3949_XAMPP 
user.amatic.mc16_13TeV.311671.2HDMa_bb_tb10_sp035_mA1600_ma350.1200e1PFlow.EXOT27.e7412_s3126_r10724_p3949_XAMPP 
user.amatic.mc16_13TeV.311672.2HDMa_bb_tb10_sp035_mA800_ma500.1200e1PFlow.EXOT27.e7412_s3126_r10724_p3949_XAMPP  
user.amatic.mc16_13TeV.311673.2HDMa_bb_tb10_sp035_mA1300_ma500.1200e1PFlow.EXOT27.e7412_s3126_r10724_p3949_XAMPP 
user.amatic.mc16_13TeV.311674.2HDMa_ggF_tb1_sp035_mA300_ma150.1200e1PFlow.EXOT27.e7412_s3126_r10724_p3949_XAMPP  
user.amatic.mc16_13TeV.311675.2HDMa_ggF_tb1_sp035_mA1000_ma150.1200e1PFlow.EXOT27.e7412_s3126_r10724_p3949_XAMPP 
user.amatic.mc16_13TeV.311676.2HDMa_ggF_tb1_sp035_mA1400_ma150.1200e1PFlow.EXOT27.e7412_s3126_r10724_p3949_XAMPP 
user.amatic.mc16_13TeV.311677.2HDMa_ggF_tb1_sp035_mA1800_ma150.1200e1PFlow.EXOT27.e7412_s3126_r10724_p3949_XAMPP 
user.amatic.mc16_13TeV.311678.2HDMa_ggF_tb1_sp035_mA400_ma250.1200e1PFlow.EXOT27.e7412_s3126_r10724_p3949_XAMPP  
user.amatic.mc16_13TeV.311679.2HDMa_ggF_tb1_sp035_mA1100_ma250.1200e1PFlow.EXOT27.e7412_s3126_r10724_p3949_XAMPP 
user.amatic.mc16_13TeV.311680.2HDMa_ggF_tb1_sp035_mA1600_ma250.1200e1PFlow.EXOT27.e7412_s3126_r10724_p3949_XAMPP 
user.amatic.mc16_13TeV.311681.2HDMa_ggF_tb1_sp035_mA600_ma350.1200e1PFlow.EXOT27.e7412_s3126_r10724_p3949_XAMPP  
user.amatic.mc16_13TeV.311682.2HDMa_ggF_tb1_sp035_mA1200_ma350.1200e1PFlow.EXOT27.e7412_s3126_r10724_p3949_XAMPP 
user.amatic.mc16_13TeV.311683.2HDMa_ggF_tb1_sp035_mA1600_ma350.1200e1PFlow.EXOT27.e7412_s3126_r10724_p3949_XAMPP 
user.amatic.mc16_13TeV.311684.2HDMa_ggF_tb1_sp035_mA800_ma500.1200e1PFlow.EXOT27.e7412_s3126_r10724_p3949_XAMPP  
user.amatic.mc16_13TeV.311685.2HDMa_ggF_tb1_sp035_mA1300_ma500.1200e1PFlow.EXOT27.e7412_s3126_r10724_p3949_XAMPP 
